…
1.  Определить небезопасные точки доступа (без шифрования – OPN)

``` r
insecure_ap <- wifi_clean %>%
  filter(Privacy == "OPN")

insecure_ap
```

    # A tibble: 42 × 15
       BSSID    `First time seen`   `Last time seen`    channel Speed Privacy Cipher
       <chr>    <dttm>              <dttm>                <int> <int> <chr>   <chr> 
     1 E8:28:C… 2023-07-28 09:13:03 2023-07-28 11:55:38       6   130 OPN     <NA>  
     2 E8:28:C… 2023-07-28 09:13:06 2023-07-28 11:55:12       6   130 OPN     <NA>  
     3 E8:28:C… 2023-07-28 09:13:06 2023-07-28 11:55:11       6   130 OPN     <NA>  
     4 E8:28:C… 2023-07-28 09:13:06 2023-07-28 11:55:10       6    -1 OPN     <NA>  
     5 00:25:0… 2023-07-28 09:13:06 2023-07-28 11:56:21      44    -1 OPN     <NA>  
     6 E8:28:C… 2023-07-28 09:13:09 2023-07-28 11:56:05      11   130 OPN     <NA>  
     7 E8:28:C… 2023-07-28 09:13:13 2023-07-28 10:27:06       6   130 OPN     <NA>  
     8 E8:28:C… 2023-07-28 09:13:13 2023-07-28 10:39:43       6   130 OPN     <NA>  
     9 E8:28:C… 2023-07-28 09:13:17 2023-07-28 11:52:32       1   130 OPN     <NA>  
    10 E8:28:C… 2023-07-28 09:13:50 2023-07-28 11:43:39      11   130 OPN     <NA>  
    # ℹ 32 more rows
    # ℹ 8 more variables: Authentication <chr>, Power <chr>, `# beacons` <chr>,
    #   `# IV` <chr>, `LAN IP` <chr>, `ID-length` <chr>, ESSID <chr>, Key <lgl>
…
1.  Отсортировать точки доступа по интервалу времени, в течение которого
    они находились на связи, по убыванию.

``` r
wifi_clean %>%
  mutate(duration_min = as.numeric(difftime(`Last time seen`, `First time seen`, units = "mins"))) %>%
  arrange(desc(duration_min)) %>%
  select(BSSID, ESSID, duration_min)
```

    # A tibble: 12,248 × 3
       BSSID             ESSID         duration_min
       <chr>             <chr>                <dbl>
     1 00:25:00:FF:94:73 <NA>                  163.
     2 10:51:07:CB:33:BF <NA>                  163.
     3 00:95:69:E7:7C:ED <NA>                  163.
     4 00:95:69:E7:7D:21 <NA>                  163.
     5 10:51:07:CB:33:E7 <NA>                  163.
     6 8C:55:4A:DE:F2:38 <NA>                  163.
     7 E8:28:C1:DD:04:52 MIREA_HOTSPOT         163.
     8 00:95:69:E7:7F:35 <NA>                  163.
     9 E8:28:C1:DC:B2:52 MIREA_HOTSPOT         163.
    10 BC:F1:71:D5:3F:C7 <NA>                  163.
    # ℹ 12,238 more rows
…
    Warning: There was 1 warning in `mutate()`.
    ℹ In argument: `beacons = as.numeric(`# beacons`)`.
    Caused by warning:
    ! NAs introduced by coercion

    # A tibble: 124 × 3
       BSSID             ESSID                    beacon_rate
       <chr>             <chr>                          <dbl>
     1 F2:30:AB:E9:03:ED iPhone (Uliana)                51.4 
     2 B2:CF:C0:00:4A:60 Михаил's Galaxy M32            48   
     3 3A:DA:00:F9:0C:02 iPhone XS Max 🦊🐱🦊           33.3 
     4 02:BC:15:7E:D5:DC MT_FREE                        30   
     5 00:3E:1A:5D:14:45 MT_FREE                        30   
     6 76:C5:A0:70:08:96 <NA>                           30   
     7 D2:25:91:F6:6C:D8 Саня                           23.1 
     8 BE:F1:71:D6:10:D7 C322U21 0566                   10.4 
     9 00:03:7A:1A:03:56 MT_FREE                        10   
    10 38:1A:52:0D:84:D7 EBFCD57F-EE81fI_DL_1AO2T        9.78
    # ℹ 114 more rows
…
