…
        # A tibble: 1 × 14
          name      height  mass hair_color skin_color eye_color birth_year sex   gender
          <chr>      <int> <dbl> <chr>      <chr>      <chr>          <dbl> <chr> <chr> 
        1 Yarael P…    264    NA none       white      yellow            NA male  mascu…
        # ℹ 5 more variables: homeworld <chr>, species <chr>, films <list>,
        #   vehicles <list>, starships <list>

7.  Найти всех персонажей ниже 170

    ``` r
    starwars[starwars$height < 170, ]
    ```

        # A tibble: 28 × 14
           name     height  mass hair_color skin_color eye_color birth_year sex   gender
           <chr>     <int> <dbl> <chr>      <chr>      <chr>          <dbl> <chr> <chr> 
         1 C-3PO       167    75 <NA>       gold       yellow           112 none  mascu…
         2 R2-D2        96    32 <NA>       white, bl… red               33 none  mascu…
         3 Leia Or…    150    49 brown      light      brown             19 fema… femin…
         4 Beru Wh…    165    75 brown      light      blue              47 fema… femin…
         5 R5-D4        97    32 <NA>       white, red red               NA none  mascu…
         6 Yoda         66    17 white      green      brown            896 male  mascu…
         7 Mon Mot…    150    NA auburn     fair       blue              48 fema… femin…
         8 <NA>         NA    NA <NA>       <NA>       <NA>              NA <NA>  <NA>  
         9 Wicket …     88    20 brown      brown      brown              8 male  mascu…
        10 Nien Nu…    160    68 none       grey       black             NA male  mascu…
        # ℹ 18 more rows
        # ℹ 5 more variables: homeworld <chr>, species <chr>, films <list>,
        #   vehicles <list>, starships <list>

8.  Подсчитать ИМТ (индекс массы тела) для всех персонажей. ИМТ
    подсчитать по формуле

    ``` r
    starwars %>% 
      mutate("IMT" = mass/(height*height)) %>% 
      select(name,IMT)
    ```

        # A tibble: 87 × 2
           name                   IMT
           <chr>                <dbl>
         1 Luke Skywalker     0.00260
         2 C-3PO              0.00269
         3 R2-D2              0.00347
         4 Darth Vader        0.00333
         5 Leia Organa        0.00218
         6 Owen Lars          0.00379
         7 Beru Whitesun Lars 0.00275
         8 R5-D4              0.00340
         9 Biggs Darklighter  0.00251
        10 Obi-Wan Kenobi     0.00232
        # ℹ 77 more rows
…
12. Подсчитать среднюю длину имени в каждой расе

    ``` r
    starwars %>%
        filter(!is.na(species), !is.na(name)) %>%
        mutate(name_length = nchar(name)) %>%
        group_by(species) %>%
        summarise(avg_name_length = mean(name_length))
    ```

        # A tibble: 37 × 2
           species   avg_name_length
           <chr>               <dbl>
         1 Aleena              12   
         2 Besalisk            15   
         3 Cerean              12   
         4 Chagrian            10   
         5 Clawdite            10   
         6 Droid                4.83
         7 Dug                  7   
         8 Ewok                21   
         9 Geonosian           17   
        10 Gungan              11.7 
        # ℹ 27 more rows
…
