…
10. Какие бортовые номера у самых старых самолетов?

    ::: {.cell}

    ``` r
    planes %>% arrange(year) %>% select(tailnum)
    ```

    ::: {.cell-output .cell-output-stdout}

        # A tibble: 3,322 × 1
           tailnum
           <chr>  
         1 N381AA 
         2 N201AA 
         3 N567AA 
         4 N378AA 
         5 N575AA 
         6 N14629 
         7 N615AA 
         8 N425AA 
         9 N383AA 
        10 N364AA 
        # ℹ 3,312 more rows
…
